{
  "classifierPath" : "meta::pure::metamodel::type::Enumeration",
  "content" : {
    "_type" : "Enumeration",
    "name" : "AveragingInOutEnum",
    "package" : "FpML::model",
    "taggedValues" : [ {
      "tag" : {
        "profile" : "meta::pure::profiles::doc",
        "value" : "doc"
      },
      "value" : "The type of averaging used in an Asian option."
    } ],
    "values" : [ {
      "value" : "In"
    }, {
      "value" : "Out"
    }, {
      "value" : "Both"
    } ]
  }
}