{
  "classifierPath" : "meta::pure::metamodel::type::Enumeration",
  "content" : {
    "_type" : "Enumeration",
    "name" : "CalculationMethodEnum",
    "package" : "FpML::model",
    "taggedValues" : [ {
      "tag" : {
        "profile" : "meta::pure::profiles::doc",
        "value" : "doc"
      },
      "value" : "The type of calculation formula to use when combining multiple rates."
    } ],
    "values" : [ {
      "value" : "Averaging"
    }, {
      "value" : "Compounding"
    }, {
      "value" : "CompoundedIndex"
    } ]
  }
}