{
  "classifierPath" : "meta::pure::metamodel::type::Enumeration",
  "content" : {
    "_type" : "Enumeration",
    "name" : "CalendarSourceEnum",
    "package" : "FpML::model",
    "taggedValues" : [ {
      "tag" : {
        "profile" : "meta::pure::profiles::doc",
        "value" : "doc"
      },
      "value" : "Describes the date source calendar for a contract whereby the prices are from the underlying commodity price source (e.g. exchange traded futures contract), but the dates are based off another calendar (e.g. the listed option on the futures contract)."
    } ],
    "values" : [ {
      "value" : "ListedOption"
    }, {
      "value" : "Future"
    } ]
  }
}