{
  "classifierPath" : "meta::pure::metamodel::type::Enumeration",
  "content" : {
    "_type" : "Enumeration",
    "name" : "CallingPartyEnum",
    "package" : "FpML::model",
    "taggedValues" : [ {
      "tag" : {
        "profile" : "meta::pure::profiles::doc",
        "value" : "doc"
      },
      "value" : "Identifies a party to the on-demand repo or SBL transaction that has a right to demand for termination of the repo or SBL transaction."
    } ],
    "values" : [ {
      "value" : "InitialBuyer"
    }, {
      "value" : "InitialSeller"
    }, {
      "value" : "Either"
    }, {
      "value" : "AsDefinedInMasterAgreement"
    } ]
  }
}