{
  "classifierPath" : "meta::pure::metamodel::type::Enumeration",
  "content" : {
    "_type" : "Enumeration",
    "name" : "DeliveryTypeEnum",
    "package" : "FpML::model",
    "values" : [ {
      "value" : "Firm"
    }, {
      "value" : "Interruptible"
    } ]
  }
}