{
  "classifierPath" : "meta::pure::metamodel::type::Enumeration",
  "content" : {
    "_type" : "Enumeration",
    "name" : "EnvironmentalProductTypeEnum",
    "package" : "FpML::model",
    "taggedValues" : [ {
      "tag" : {
        "profile" : "meta::pure::profiles::doc",
        "value" : "doc"
      },
      "value" : "Environmental Product (e.g. allowance, certificate or unit)."
    } ],
    "values" : [ {
      "value" : "EUAllowance"
    }, {
      "value" : "EUCredit"
    }, {
      "value" : "AlternativeAllowance"
    }, {
      "value" : "NOXEmissionsProduct"
    }, {
      "value" : "RegionalEmissionsProduct"
    }, {
      "value" : "RGGIEmissionsProduct"
    }, {
      "value" : "SO2EmissionsProduct"
    }, {
      "value" : "StateEmissionProduct"
    }, {
      "value" : "VoluntaryEmissionProduct"
    }, {
      "value" : "RenewableEnergyCertificate"
    }, {
      "value" : "AUSCarbonCreditUnit"
    }, {
      "value" : "AUSCarbonUnit"
    }, {
      "value" : "AUSEnergySavingCertificate"
    }, {
      "value" : "AUSLargeScaleGenerationCertificate"
    }, {
      "value" : "AUSSmallScaleTechnologyCertificate"
    }, {
      "value" : "AUSVictorianEnergyEfficiencyCertificate"
    }, {
      "value" : "MXCCFECRTINTLODS"
    }, {
      "value" : "NZEmissionsUnits"
    }, {
      "value" : "UKRenewableObligationCertificate"
    } ]
  }
}