{
  "classifierPath" : "meta::pure::metamodel::type::Enumeration",
  "content" : {
    "_type" : "Enumeration",
    "name" : "ExerciseActionEnum",
    "package" : "FpML::model",
    "taggedValues" : [ {
      "tag" : {
        "profile" : "meta::pure::profiles::doc",
        "value" : "doc"
      },
      "value" : "The specification of whether an OTC option will be exercised."
    } ],
    "values" : [ {
      "value" : "FullExercise"
    }, {
      "value" : "PartialExercise"
    }, {
      "value" : "Abandon"
    } ]
  }
}