{
  "classifierPath" : "meta::pure::metamodel::type::Class",
  "content" : {
    "_type" : "class",
    "name" : "FallbackRateObservation",
    "package" : "FpML::model",
    "properties" : [ {
      "multiplicity" : {
        "lowerBound" : 0,
        "upperBound" : 1
      },
      "name" : "observationDate",
      "taggedValues" : [ {
        "tag" : {
          "profile" : "meta::pure::profiles::doc",
          "value" : "doc"
        },
        "value" : "The date which is the Fallback Observation Date, as defined in the ISDA 2006/2021 Definitions (typically 2 days prior to the relevant Payment/calculation date."
      } ],
      "type" : "StrictDate"
    }, {
      "multiplicity" : {
        "lowerBound" : 0,
        "upperBound" : 1
      },
      "name" : "availableRecordDate",
      "taggedValues" : [ {
        "tag" : {
          "profile" : "meta::pure::profiles::doc",
          "value" : "doc"
        },
        "value" : "The original record date from the fallback publication source that was available at the time that fallback rate was observed. This may be before the original fixing date depending on publication schedules"
      } ],
      "type" : "StrictDate"
    } ],
    "taggedValues" : [ {
      "tag" : {
        "profile" : "meta::pure::profiles::doc",
        "value" : "doc"
      },
      "value" : "A type defining parameters associated with a fallback observation, i.e. a rate observation where the original published rate is not available and instead a fallback rate must be used."
    } ]
  }
}