{
  "classifierPath" : "meta::pure::metamodel::type::Enumeration",
  "content" : {
    "_type" : "Enumeration",
    "name" : "FxBarrierTypeEnum",
    "package" : "FpML::model",
    "taggedValues" : [ {
      "tag" : {
        "profile" : "meta::pure::profiles::doc",
        "value" : "doc"
      },
      "value" : "The specification of whether a barrier within an FX OTC option is a knockin or knockout."
    } ],
    "values" : [ {
      "value" : "Knockin"
    }, {
      "value" : "Knockout"
    }, {
      "value" : "ReverseKnockin"
    }, {
      "value" : "ReverseKnockout"
    } ]
  }
}