{
  "classifierPath" : "meta::pure::metamodel::type::Class",
  "content" : {
    "_type" : "class",
    "constraints" : [ {
      "functionDefinition" : {
        "_type" : "lambda",
        "body" : [ {
          "_type" : "func",
          "function" : "or",
          "parameters" : [ {
            "_type" : "func",
            "function" : "and",
            "parameters" : [ {
              "_type" : "func",
              "function" : "isNotEmpty",
              "parameters" : [ {
                "_type" : "property",
                "parameters" : [ {
                  "_type" : "var",
                  "name" : "this",
                  "sourceInformation" : {
                    "endColumn" : 19,
                    "endLine" : 7194,
                    "sourceId" : "",
                    "startColumn" : 15,
                    "startLine" : 7194
                  }
                } ],
                "property" : "fixing",
                "sourceInformation" : {
                  "endColumn" : 26,
                  "endLine" : 7194,
                  "sourceId" : "",
                  "startColumn" : 21,
                  "startLine" : 7194
                }
              } ],
              "sourceInformation" : {
                "endColumn" : 38,
                "endLine" : 7194,
                "sourceId" : "",
                "startColumn" : 29,
                "startLine" : 7194
              }
            }, {
              "_type" : "func",
              "function" : "isEmpty",
              "parameters" : [ {
                "_type" : "property",
                "parameters" : [ {
                  "_type" : "var",
                  "name" : "this",
                  "sourceInformation" : {
                    "endColumn" : 49,
                    "endLine" : 7194,
                    "sourceId" : "",
                    "startColumn" : 45,
                    "startLine" : 7194
                  }
                } ],
                "property" : "rateSourceFixing",
                "sourceInformation" : {
                  "endColumn" : 66,
                  "endLine" : 7194,
                  "sourceId" : "",
                  "startColumn" : 51,
                  "startLine" : 7194
                }
              } ],
              "sourceInformation" : {
                "endColumn" : 75,
                "endLine" : 7194,
                "sourceId" : "",
                "startColumn" : 69,
                "startLine" : 7194
              }
            } ],
            "sourceInformation" : {
              "endColumn" : 43,
              "endLine" : 7194,
              "sourceId" : "",
              "startColumn" : 42,
              "startLine" : 7194
            }
          }, {
            "_type" : "func",
            "function" : "and",
            "parameters" : [ {
              "_type" : "func",
              "function" : "isEmpty",
              "parameters" : [ {
                "_type" : "property",
                "parameters" : [ {
                  "_type" : "var",
                  "name" : "this",
                  "sourceInformation" : {
                    "endColumn" : 88,
                    "endLine" : 7194,
                    "sourceId" : "",
                    "startColumn" : 84,
                    "startLine" : 7194
                  }
                } ],
                "property" : "fixing",
                "sourceInformation" : {
                  "endColumn" : 95,
                  "endLine" : 7194,
                  "sourceId" : "",
                  "startColumn" : 90,
                  "startLine" : 7194
                }
              } ],
              "sourceInformation" : {
                "endColumn" : 104,
                "endLine" : 7194,
                "sourceId" : "",
                "startColumn" : 98,
                "startLine" : 7194
              }
            }, {
              "_type" : "func",
              "function" : "isNotEmpty",
              "parameters" : [ {
                "_type" : "property",
                "parameters" : [ {
                  "_type" : "var",
                  "name" : "this",
                  "sourceInformation" : {
                    "endColumn" : 115,
                    "endLine" : 7194,
                    "sourceId" : "",
                    "startColumn" : 111,
                    "startLine" : 7194
                  }
                } ],
                "property" : "rateSourceFixing",
                "sourceInformation" : {
                  "endColumn" : 132,
                  "endLine" : 7194,
                  "sourceId" : "",
                  "startColumn" : 117,
                  "startLine" : 7194
                }
              } ],
              "sourceInformation" : {
                "endColumn" : 144,
                "endLine" : 7194,
                "sourceId" : "",
                "startColumn" : 135,
                "startLine" : 7194
              }
            } ],
            "sourceInformation" : {
              "endColumn" : 109,
              "endLine" : 7194,
              "sourceId" : "",
              "startColumn" : 108,
              "startLine" : 7194
            }
          } ],
          "sourceInformation" : {
            "endColumn" : 81,
            "endLine" : 7194,
            "sourceId" : "",
            "startColumn" : 80,
            "startLine" : 7194
          }
        } ],
        "parameters" : [ ]
      },
      "name" : "c1_choice"
    } ],
    "name" : "FxCashSettlement",
    "package" : "FpML::model",
    "properties" : [ {
      "multiplicity" : {
        "lowerBound" : 0,
        "upperBound" : 1
      },
      "name" : "settlementCurrency",
      "taggedValues" : [ {
        "tag" : {
          "profile" : "meta::pure::profiles::doc",
          "value" : "doc"
        },
        "value" : "The currency in which cash settlement occurs for non-deliverable forwards and cash-settled options (non-deliverable or otherwise)."
      } ],
      "type" : "FpML::model::Currency"
    }, {
      "multiplicity" : {
        "lowerBound" : 0,
        "upperBound" : 1
      },
      "name" : "referenceCurrency",
      "type" : "FpML::model::Currency"
    }, {
      "multiplicity" : {
        "lowerBound" : 0,
        "upperBound" : 1
      },
      "name" : "notionalAmount",
      "taggedValues" : [ {
        "tag" : {
          "profile" : "meta::pure::profiles::doc",
          "value" : "doc"
        },
        "value" : "The amount of money that the settlement will be derived from."
      } ],
      "type" : "FpML::model::PositiveMoney"
    }, {
      "multiplicity" : {
        "lowerBound" : 0
      },
      "name" : "fixing",
      "taggedValues" : [ {
        "tag" : {
          "profile" : "meta::pure::profiles::doc",
          "value" : "doc"
        },
        "value" : "Specifies the source for and timing of a fixing of an exchange rate. This is used in the agreement of non-deliverable forward trades as well as various types of FX OTC options that require observations against a particular rate. This element is optional, permitting it to be omitted where fixing details are unavailable at the point of message creation. It has multiple occurrence to support the case where fixing details must be specified for more than one currency pair e.g. on an option settled into a third currency (that is not one of the option currencies)."
      } ],
      "type" : "FpML::model::FxFixing"
    }, {
      "multiplicity" : {
        "lowerBound" : 0
      },
      "name" : "rateSourceFixing",
      "taggedValues" : [ {
        "tag" : {
          "profile" : "meta::pure::profiles::doc",
          "value" : "doc"
        },
        "value" : "Specifies the source for and timing of a fixing of an exchange rate. This is used in the agreement of non-deliverable forward trades as well as various types of FX OTC options that require observations against a particular rate. This element is optional, permitting it to be omitted where fixing details are unavailable at the point of message creation. It has multiple occurrence to support the case where fixing details must be specified for more than one currency pair e.g. on an option settled into a third currency (that is not one of the option currencies)."
      } ],
      "type" : "FpML::model::FxRateSourceFixing"
    }, {
      "multiplicity" : {
        "lowerBound" : 0,
        "upperBound" : 1
      },
      "name" : "settlementDate",
      "taggedValues" : [ {
        "tag" : {
          "profile" : "meta::pure::profiles::doc",
          "value" : "doc"
        },
        "value" : "The date on which settlement is scheduled to occur"
      } ],
      "type" : "FpML::model::AdjustableDate"
    } ],
    "taggedValues" : [ {
      "tag" : {
        "profile" : "meta::pure::profiles::doc",
        "value" : "doc"
      },
      "value" : "A type that is used for describing cash settlement of an option / non deliverable forward. It includes the currency to settle into together with the fixings required to calculate the currency amount."
    } ]
  }
}