{
  "classifierPath" : "meta::pure::metamodel::type::Enumeration",
  "content" : {
    "_type" : "Enumeration",
    "name" : "FxStraddleTypeEnum",
    "package" : "FpML::model",
    "taggedValues" : [ {
      "tag" : {
        "profile" : "meta::pure::profiles::doc",
        "value" : "doc"
      },
      "value" : "Forward Volatility Agreement Straddle Type."
    } ],
    "values" : [ {
      "value" : "AtTheMoneyForward"
    }, {
      "value" : "DeltaNeutral"
    } ]
  }
}