{
  "classifierPath" : "meta::pure::metamodel::type::Class",
  "content" : {
    "_type" : "class",
    "name" : "Index",
    "package" : "FpML::model",
    "properties" : [ {
      "multiplicity" : {
        "lowerBound" : 0,
        "upperBound" : 1
      },
      "name" : "futureId",
      "taggedValues" : [ {
        "tag" : {
          "profile" : "meta::pure::profiles::doc",
          "value" : "doc"
        },
        "value" : "A short form unique identifier for the reference future contract in the case of an index underlyer."
      } ],
      "type" : "FpML::model::FutureId"
    } ],
    "superTypes" : [ "FpML::model::ExchangeTradedCalculatedPrice" ],
    "taggedValues" : [ {
      "tag" : {
        "profile" : "meta::pure::profiles::doc",
        "value" : "doc"
      },
      "value" : "A published index whose price depends on exchange traded constituents."
    } ]
  }
}