{
  "classifierPath" : "meta::pure::metamodel::type::Enumeration",
  "content" : {
    "_type" : "Enumeration",
    "name" : "LoanAllTransactionsEnum",
    "package" : "FpML::model",
    "taggedValues" : [ {
      "tag" : {
        "profile" : "meta::pure::profiles::doc",
        "value" : "doc"
      },
      "value" : "A list with a single 'all' value to explicitly indicate all transactions are applicable."
    } ],
    "values" : [ {
      "value" : "All"
    } ]
  }
}