{
  "classifierPath" : "meta::pure::metamodel::type::Enumeration",
  "content" : {
    "_type" : "Enumeration",
    "name" : "LoanTradingAccrualSettlementEnum",
    "package" : "FpML::model",
    "taggedValues" : [ {
      "tag" : {
        "profile" : "meta::pure::profiles::doc",
        "value" : "doc"
      },
      "value" : "A list that defines how the interest accrued during the settlement period is calculated and paid."
    } ],
    "values" : [ {
      "value" : "Flat"
    }, {
      "value" : "SettledWithAccrued"
    }, {
      "value" : "SettledWithoutAccrued"
    } ]
  }
}