{
  "classifierPath" : "meta::pure::metamodel::type::Enumeration",
  "content" : {
    "_type" : "Enumeration",
    "name" : "NonCashDividendTreatmentEnum",
    "package" : "FpML::model",
    "taggedValues" : [ {
      "tag" : {
        "profile" : "meta::pure::profiles::doc",
        "value" : "doc"
      },
      "value" : "Defines treatment of non-cash dividends."
    } ],
    "values" : [ {
      "value" : "PotentialAdjustmentEvent"
    }, {
      "value" : "CashEquivalent"
    } ]
  }
}