{
  "classifierPath" : "meta::pure::metamodel::type::Enumeration",
  "content" : {
    "_type" : "Enumeration",
    "name" : "PassiveOrAggressiveEnum",
    "package" : "FpML::model",
    "taggedValues" : [ {
      "tag" : {
        "profile" : "meta::pure::profiles::doc",
        "value" : "doc"
      },
      "value" : "On partial fill and fill order events, indicates whether the order was already resting on the order book and providing liquidity (passive) or the order initiated the trade and thus took liquidity (aggressive).This field shall be left blank if not relevant."
    } ],
    "values" : [ {
      "value" : "Passive"
    }, {
      "value" : "Aggressive"
    } ]
  }
}