{
  "classifierPath" : "meta::pure::metamodel::type::Class",
  "content" : {
    "_type" : "class",
    "name" : "PeriodicPayment",
    "package" : "FpML::model",
    "properties" : [ {
      "multiplicity" : {
        "lowerBound" : 0,
        "upperBound" : 1
      },
      "name" : "paymentFrequency",
      "taggedValues" : [ {
        "tag" : {
          "profile" : "meta::pure::profiles::doc",
          "value" : "doc"
        },
        "value" : "The time interval between regular fixed rate payer payment dates."
      } ],
      "type" : "FpML::model::Period"
    }, {
      "multiplicity" : {
        "lowerBound" : 0,
        "upperBound" : 1
      },
      "name" : "firstPeriodStartDate",
      "taggedValues" : [ {
        "tag" : {
          "profile" : "meta::pure::profiles::doc",
          "value" : "doc"
        },
        "value" : "The start date of the initial calculation period if such date is not equal to the trade’s effective date. It must only be specified if it is not equal to the effective date. The applicable business day convention and business day are those specified in the dateAdjustments element within the generalTerms component (or in a transaction supplement FpML representation defined within the referenced general terms confirmation agreement)."
      } ],
      "type" : "StrictDate"
    }, {
      "multiplicity" : {
        "lowerBound" : 0,
        "upperBound" : 1
      },
      "name" : "firstPaymentDate",
      "taggedValues" : [ {
        "tag" : {
          "profile" : "meta::pure::profiles::doc",
          "value" : "doc"
        },
        "value" : "The first unadjusted fixed rate payer payment date. The applicable business day convention and business day are those specified in the dateAdjustments element within the generalTerms component (or in a transaction supplement FpML representation defined within the referenced general terms confirmation agreement). ISDA 2003 Term: Fixed Rate Payer Payment Date"
      } ],
      "type" : "StrictDate"
    }, {
      "multiplicity" : {
        "lowerBound" : 0,
        "upperBound" : 1
      },
      "name" : "lastRegularPaymentDate",
      "taggedValues" : [ {
        "tag" : {
          "profile" : "meta::pure::profiles::doc",
          "value" : "doc"
        },
        "value" : "The last regular unadjusted fixed rate payer payment date. The applicable business day convention and business day are those specified in the dateAdjustments element within the generalTerms component (or in a transaction supplement FpML representation defined within the referenced general terms confirmation agreement). This element should only be included if there is a final payment stub, i.e. where the last regular unadjusted fixed rate payer payment date is not equal to the scheduled termination date. ISDA 2003 Term: Fixed Rate Payer Payment Date"
      } ],
      "type" : "StrictDate"
    }, {
      "multiplicity" : {
        "lowerBound" : 0,
        "upperBound" : 1
      },
      "name" : "rollConvention",
      "taggedValues" : [ {
        "tag" : {
          "profile" : "meta::pure::profiles::doc",
          "value" : "doc"
        },
        "value" : "Used in conjunction with the effectiveDate, scheduledTerminationDate, firstPaymentDate, lastRegularPaymentDate and paymentFrequency to determine the regular fixed rate payer payment dates."
      } ],
      "type" : "FpML::model::RollConventionEnum"
    }, {
      "multiplicity" : {
        "lowerBound" : 0,
        "upperBound" : 1
      },
      "name" : "fixedAmount",
      "taggedValues" : [ {
        "tag" : {
          "profile" : "meta::pure::profiles::doc",
          "value" : "doc"
        },
        "value" : "A fixed payment amount. ISDA 2003 Term: Fixed Amount"
      } ],
      "type" : "FpML::model::Money"
    }, {
      "multiplicity" : {
        "lowerBound" : 0,
        "upperBound" : 1
      },
      "name" : "fixedAmountCalculation",
      "taggedValues" : [ {
        "tag" : {
          "profile" : "meta::pure::profiles::doc",
          "value" : "doc"
        },
        "value" : "This element contains all the terms relevant to calculating a fixed amount where the fixed amount is calculated by reference to a per annum fixed rate. There is no corresponding ISDA 2003 Term. The equivalent is Sec 5.1 'Calculation of Fixed Amount' but this in itself is not a defined Term."
      } ],
      "type" : "FpML::model::FixedAmountCalculation"
    }, {
      "multiplicity" : {
        "lowerBound" : 0,
        "upperBound" : 1
      },
      "name" : "floatingAmountCalculation",
      "type" : "FpML::model::FloatingAmountCalculation"
    }, {
      "multiplicity" : {
        "lowerBound" : 0
      },
      "name" : "adjustedPaymentDates",
      "taggedValues" : [ {
        "tag" : {
          "profile" : "meta::pure::profiles::doc",
          "value" : "doc"
        },
        "value" : "An optional cashflow-like structure allowing the equivalent representation of the periodic fixed payments in terms of a series of adjusted payment dates and amounts. This is intended to support application integration within an organisation and is not intended for use in inter-firm communication or confirmations. ISDA 2003 Term: Fixed Rate Payer Payment Date"
      } ],
      "type" : "FpML::model::AdjustedPaymentDates"
    } ],
    "superTypes" : [ "FpML::model::PaymentBase" ]
  }
}