{
  "classifierPath" : "meta::pure::metamodel::type::Class",
  "content" : {
    "_type" : "class",
    "constraints" : [ {
      "functionDefinition" : {
        "_type" : "lambda",
        "body" : [ {
          "_type" : "func",
          "function" : "or",
          "parameters" : [ {
            "_type" : "func",
            "function" : "and",
            "parameters" : [ {
              "_type" : "func",
              "function" : "isNotEmpty",
              "parameters" : [ {
                "_type" : "property",
                "parameters" : [ {
                  "_type" : "var",
                  "name" : "this",
                  "sourceInformation" : {
                    "endColumn" : 19,
                    "endLine" : 8486,
                    "sourceId" : "",
                    "startColumn" : 15,
                    "startLine" : 8486
                  }
                } ],
                "property" : "businessDaysNotSpecified",
                "sourceInformation" : {
                  "endColumn" : 44,
                  "endLine" : 8486,
                  "sourceId" : "",
                  "startColumn" : 21,
                  "startLine" : 8486
                }
              } ],
              "sourceInformation" : {
                "endColumn" : 56,
                "endLine" : 8486,
                "sourceId" : "",
                "startColumn" : 47,
                "startLine" : 8486
              }
            }, {
              "_type" : "func",
              "function" : "and",
              "parameters" : [ {
                "_type" : "func",
                "function" : "isEmpty",
                "parameters" : [ {
                  "_type" : "property",
                  "parameters" : [ {
                    "_type" : "var",
                    "name" : "this",
                    "sourceInformation" : {
                      "endColumn" : 68,
                      "endLine" : 8486,
                      "sourceId" : "",
                      "startColumn" : 64,
                      "startLine" : 8486
                    }
                  } ],
                  "property" : "businessDays",
                  "sourceInformation" : {
                    "endColumn" : 81,
                    "endLine" : 8486,
                    "sourceId" : "",
                    "startColumn" : 70,
                    "startLine" : 8486
                  }
                } ],
                "sourceInformation" : {
                  "endColumn" : 90,
                  "endLine" : 8486,
                  "sourceId" : "",
                  "startColumn" : 84,
                  "startLine" : 8486
                }
              }, {
                "_type" : "func",
                "function" : "isEmpty",
                "parameters" : [ {
                  "_type" : "property",
                  "parameters" : [ {
                    "_type" : "var",
                    "name" : "this",
                    "sourceInformation" : {
                      "endColumn" : 101,
                      "endLine" : 8486,
                      "sourceId" : "",
                      "startColumn" : 97,
                      "startLine" : 8486
                    }
                  } ],
                  "property" : "maximumBusinessDays",
                  "sourceInformation" : {
                    "endColumn" : 121,
                    "endLine" : 8486,
                    "sourceId" : "",
                    "startColumn" : 103,
                    "startLine" : 8486
                  }
                } ],
                "sourceInformation" : {
                  "endColumn" : 130,
                  "endLine" : 8486,
                  "sourceId" : "",
                  "startColumn" : 124,
                  "startLine" : 8486
                }
              } ],
              "sourceInformation" : {
                "endColumn" : 95,
                "endLine" : 8486,
                "sourceId" : "",
                "startColumn" : 94,
                "startLine" : 8486
              }
            } ],
            "sourceInformation" : {
              "endColumn" : 61,
              "endLine" : 8486,
              "sourceId" : "",
              "startColumn" : 60,
              "startLine" : 8486
            }
          }, {
            "_type" : "func",
            "function" : "or",
            "parameters" : [ {
              "_type" : "func",
              "function" : "and",
              "parameters" : [ {
                "_type" : "func",
                "function" : "isEmpty",
                "parameters" : [ {
                  "_type" : "property",
                  "parameters" : [ {
                    "_type" : "var",
                    "name" : "this",
                    "sourceInformation" : {
                      "endColumn" : 145,
                      "endLine" : 8486,
                      "sourceId" : "",
                      "startColumn" : 141,
                      "startLine" : 8486
                    }
                  } ],
                  "property" : "businessDaysNotSpecified",
                  "sourceInformation" : {
                    "endColumn" : 170,
                    "endLine" : 8486,
                    "sourceId" : "",
                    "startColumn" : 147,
                    "startLine" : 8486
                  }
                } ],
                "sourceInformation" : {
                  "endColumn" : 179,
                  "endLine" : 8486,
                  "sourceId" : "",
                  "startColumn" : 173,
                  "startLine" : 8486
                }
              }, {
                "_type" : "func",
                "function" : "and",
                "parameters" : [ {
                  "_type" : "func",
                  "function" : "isNotEmpty",
                  "parameters" : [ {
                    "_type" : "property",
                    "parameters" : [ {
                      "_type" : "var",
                      "name" : "this",
                      "sourceInformation" : {
                        "endColumn" : 191,
                        "endLine" : 8486,
                        "sourceId" : "",
                        "startColumn" : 187,
                        "startLine" : 8486
                      }
                    } ],
                    "property" : "businessDays",
                    "sourceInformation" : {
                      "endColumn" : 204,
                      "endLine" : 8486,
                      "sourceId" : "",
                      "startColumn" : 193,
                      "startLine" : 8486
                    }
                  } ],
                  "sourceInformation" : {
                    "endColumn" : 216,
                    "endLine" : 8486,
                    "sourceId" : "",
                    "startColumn" : 207,
                    "startLine" : 8486
                  }
                }, {
                  "_type" : "func",
                  "function" : "isEmpty",
                  "parameters" : [ {
                    "_type" : "property",
                    "parameters" : [ {
                      "_type" : "var",
                      "name" : "this",
                      "sourceInformation" : {
                        "endColumn" : 227,
                        "endLine" : 8486,
                        "sourceId" : "",
                        "startColumn" : 223,
                        "startLine" : 8486
                      }
                    } ],
                    "property" : "maximumBusinessDays",
                    "sourceInformation" : {
                      "endColumn" : 247,
                      "endLine" : 8486,
                      "sourceId" : "",
                      "startColumn" : 229,
                      "startLine" : 8486
                    }
                  } ],
                  "sourceInformation" : {
                    "endColumn" : 256,
                    "endLine" : 8486,
                    "sourceId" : "",
                    "startColumn" : 250,
                    "startLine" : 8486
                  }
                } ],
                "sourceInformation" : {
                  "endColumn" : 221,
                  "endLine" : 8486,
                  "sourceId" : "",
                  "startColumn" : 220,
                  "startLine" : 8486
                }
              } ],
              "sourceInformation" : {
                "endColumn" : 184,
                "endLine" : 8486,
                "sourceId" : "",
                "startColumn" : 183,
                "startLine" : 8486
              }
            }, {
              "_type" : "func",
              "function" : "and",
              "parameters" : [ {
                "_type" : "func",
                "function" : "isEmpty",
                "parameters" : [ {
                  "_type" : "property",
                  "parameters" : [ {
                    "_type" : "var",
                    "name" : "this",
                    "sourceInformation" : {
                      "endColumn" : 270,
                      "endLine" : 8486,
                      "sourceId" : "",
                      "startColumn" : 266,
                      "startLine" : 8486
                    }
                  } ],
                  "property" : "businessDaysNotSpecified",
                  "sourceInformation" : {
                    "endColumn" : 295,
                    "endLine" : 8486,
                    "sourceId" : "",
                    "startColumn" : 272,
                    "startLine" : 8486
                  }
                } ],
                "sourceInformation" : {
                  "endColumn" : 304,
                  "endLine" : 8486,
                  "sourceId" : "",
                  "startColumn" : 298,
                  "startLine" : 8486
                }
              }, {
                "_type" : "func",
                "function" : "and",
                "parameters" : [ {
                  "_type" : "func",
                  "function" : "isEmpty",
                  "parameters" : [ {
                    "_type" : "property",
                    "parameters" : [ {
                      "_type" : "var",
                      "name" : "this",
                      "sourceInformation" : {
                        "endColumn" : 316,
                        "endLine" : 8486,
                        "sourceId" : "",
                        "startColumn" : 312,
                        "startLine" : 8486
                      }
                    } ],
                    "property" : "businessDays",
                    "sourceInformation" : {
                      "endColumn" : 329,
                      "endLine" : 8486,
                      "sourceId" : "",
                      "startColumn" : 318,
                      "startLine" : 8486
                    }
                  } ],
                  "sourceInformation" : {
                    "endColumn" : 338,
                    "endLine" : 8486,
                    "sourceId" : "",
                    "startColumn" : 332,
                    "startLine" : 8486
                  }
                }, {
                  "_type" : "func",
                  "function" : "isNotEmpty",
                  "parameters" : [ {
                    "_type" : "property",
                    "parameters" : [ {
                      "_type" : "var",
                      "name" : "this",
                      "sourceInformation" : {
                        "endColumn" : 349,
                        "endLine" : 8486,
                        "sourceId" : "",
                        "startColumn" : 345,
                        "startLine" : 8486
                      }
                    } ],
                    "property" : "maximumBusinessDays",
                    "sourceInformation" : {
                      "endColumn" : 369,
                      "endLine" : 8486,
                      "sourceId" : "",
                      "startColumn" : 351,
                      "startLine" : 8486
                    }
                  } ],
                  "sourceInformation" : {
                    "endColumn" : 381,
                    "endLine" : 8486,
                    "sourceId" : "",
                    "startColumn" : 372,
                    "startLine" : 8486
                  }
                } ],
                "sourceInformation" : {
                  "endColumn" : 343,
                  "endLine" : 8486,
                  "sourceId" : "",
                  "startColumn" : 342,
                  "startLine" : 8486
                }
              } ],
              "sourceInformation" : {
                "endColumn" : 309,
                "endLine" : 8486,
                "sourceId" : "",
                "startColumn" : 308,
                "startLine" : 8486
              }
            } ],
            "sourceInformation" : {
              "endColumn" : 263,
              "endLine" : 8486,
              "sourceId" : "",
              "startColumn" : 262,
              "startLine" : 8486
            }
          } ],
          "sourceInformation" : {
            "endColumn" : 137,
            "endLine" : 8486,
            "sourceId" : "",
            "startColumn" : 136,
            "startLine" : 8486
          }
        } ],
        "parameters" : [ ]
      },
      "name" : "c1_choice"
    } ],
    "name" : "PhysicalSettlementPeriod",
    "package" : "FpML::model",
    "properties" : [ {
      "multiplicity" : {
        "lowerBound" : 0,
        "upperBound" : 1
      },
      "name" : "businessDaysNotSpecified",
      "taggedValues" : [ {
        "tag" : {
          "profile" : "meta::pure::profiles::doc",
          "value" : "doc"
        },
        "value" : "An explicit indication that a number of business days are not specified and therefore ISDA fallback provisions should apply."
      } ],
      "type" : "Boolean"
    }, {
      "multiplicity" : {
        "lowerBound" : 0,
        "upperBound" : 1
      },
      "name" : "businessDays",
      "taggedValues" : [ {
        "tag" : {
          "profile" : "meta::pure::profiles::doc",
          "value" : "doc"
        },
        "value" : "A number of business days. Its precise meaning is dependant on the context in which this element is used. ISDA 2003 Term: Business Day"
      } ],
      "type" : "Decimal"
    }, {
      "multiplicity" : {
        "lowerBound" : 0,
        "upperBound" : 1
      },
      "name" : "maximumBusinessDays",
      "taggedValues" : [ {
        "tag" : {
          "profile" : "meta::pure::profiles::doc",
          "value" : "doc"
        },
        "value" : "A maximum number of business days. Its precise meaning is dependant on the context in which this element is used. Intended to be used to limit a particular ISDA fallback provision."
      } ],
      "type" : "Decimal"
    } ]
  }
}