{
  "classifierPath" : "meta::pure::metamodel::type::Enumeration",
  "content" : {
    "_type" : "Enumeration",
    "name" : "PositionStatusEnum",
    "package" : "FpML::model",
    "taggedValues" : [ {
      "tag" : {
        "profile" : "meta::pure::profiles::doc",
        "value" : "doc"
      },
      "value" : "The type of averaging used in an Asian option. A type used to report the status of a position."
    } ],
    "values" : [ {
      "value" : "New"
    }, {
      "value" : "Existing"
    }, {
      "value" : "Closed"
    } ]
  }
}