{
  "classifierPath" : "meta::pure::metamodel::type::Class",
  "content" : {
    "_type" : "class",
    "name" : "RateObservation",
    "package" : "FpML::model",
    "properties" : [ {
      "multiplicity" : {
        "lowerBound" : 0,
        "upperBound" : 1
      },
      "name" : "resetDate",
      "taggedValues" : [ {
        "tag" : {
          "profile" : "meta::pure::profiles::doc",
          "value" : "doc"
        },
        "value" : "The reset date."
      } ],
      "type" : "StrictDate"
    }, {
      "multiplicity" : {
        "lowerBound" : 0,
        "upperBound" : 1
      },
      "name" : "adjustedFixingDate",
      "taggedValues" : [ {
        "tag" : {
          "profile" : "meta::pure::profiles::doc",
          "value" : "doc"
        },
        "value" : "The adjusted fixing date, i.e. the actual date the rate is observed. The date should already be adjusted for any applicable business day convention."
      } ],
      "type" : "StrictDate"
    }, {
      "multiplicity" : {
        "lowerBound" : 0,
        "upperBound" : 1
      },
      "name" : "observedRate",
      "taggedValues" : [ {
        "tag" : {
          "profile" : "meta::pure::profiles::doc",
          "value" : "doc"
        },
        "value" : "The actual observed rate before any required rate treatment is applied, e.g. before converting a rate quoted on a discount basis to an equivalent yield. An observed rate of 5% would be represented as 0.05."
      } ],
      "type" : "Decimal"
    }, {
      "multiplicity" : {
        "lowerBound" : 0,
        "upperBound" : 1
      },
      "name" : "treatedRate",
      "taggedValues" : [ {
        "tag" : {
          "profile" : "meta::pure::profiles::doc",
          "value" : "doc"
        },
        "value" : "The observed rate after any required rate treatment is applied. A treated rate of 5% would be represented as 0.05."
      } ],
      "type" : "Decimal"
    }, {
      "multiplicity" : {
        "lowerBound" : 0,
        "upperBound" : 1
      },
      "name" : "observationWeight",
      "taggedValues" : [ {
        "tag" : {
          "profile" : "meta::pure::profiles::doc",
          "value" : "doc"
        },
        "value" : "The number of days weighting to be associated with the rate observation, i.e. the number of days such rate is in effect. This is applicable in the case of a weighted average method of calculation where more than one reset date is established for a single calculation period. If this element is not included, observationWeight = 1 by default."
      } ],
      "type" : "Decimal"
    }, {
      "multiplicity" : {
        "lowerBound" : 0,
        "upperBound" : 1
      },
      "name" : "rateReference",
      "taggedValues" : [ {
        "tag" : {
          "profile" : "meta::pure::profiles::doc",
          "value" : "doc"
        },
        "value" : "A pointer style reference to a floating rate component defined as part of a stub calculation period amount component. It is only required when it is necessary to distinguish two rate observations for the same fixing date which could occur when linear interpolation of two different rates occurs for a stub calculation period."
      } ],
      "type" : "FpML::model::RateReference"
    }, {
      "multiplicity" : {
        "lowerBound" : 0,
        "upperBound" : 1
      },
      "name" : "forecastRate",
      "taggedValues" : [ {
        "tag" : {
          "profile" : "meta::pure::profiles::doc",
          "value" : "doc"
        },
        "value" : "The value representing the forecast rate used to calculate the forecast future value of the accrual period.A value of 1% should be represented as 0.01"
      } ],
      "type" : "Decimal"
    }, {
      "multiplicity" : {
        "lowerBound" : 0,
        "upperBound" : 1
      },
      "name" : "treatedForecastRate",
      "taggedValues" : [ {
        "tag" : {
          "profile" : "meta::pure::profiles::doc",
          "value" : "doc"
        },
        "value" : "The value representing the forecast rate after applying rate treatment rules. A value of 1% should be represented as 0.01"
      } ],
      "type" : "Decimal"
    }, {
      "multiplicity" : {
        "lowerBound" : 0,
        "upperBound" : 1
      },
      "name" : "fallback",
      "taggedValues" : [ {
        "tag" : {
          "profile" : "meta::pure::profiles::doc",
          "value" : "doc"
        },
        "value" : "Observation Parameters for IBOR fallback rates. These allow recording information about how the fallback rate was"
      } ],
      "type" : "FpML::model::FallbackRateObservation"
    }, {
      "multiplicity" : {
        "lowerBound" : 0,
        "upperBound" : 1
      },
      "name" : "id",
      "type" : "String"
    } ],
    "taggedValues" : [ {
      "tag" : {
        "profile" : "meta::pure::profiles::doc",
        "value" : "doc"
      },
      "value" : "A type defining parameters associated with an individual observation or fixing. This type forms part of the cashflow representation of a stream."
    } ]
  }
}