{
  "classifierPath" : "meta::pure::metamodel::type::Enumeration",
  "content" : {
    "_type" : "Enumeration",
    "name" : "ShareExtraordinaryEventEnum",
    "package" : "FpML::model",
    "taggedValues" : [ {
      "tag" : {
        "profile" : "meta::pure::profiles::doc",
        "value" : "doc"
      },
      "value" : "Defines the consequences of extraordinary events relating to the underlying."
    } ],
    "values" : [ {
      "value" : "AlternativeObligation"
    }, {
      "value" : "CancellationAndPayment"
    }, {
      "value" : "OptionsExchange"
    }, {
      "value" : "CalculationAgent"
    }, {
      "value" : "ModifiedCalculationAgent"
    }, {
      "value" : "PartialCancellationAndPayment"
    }, {
      "value" : "Component"
    } ]
  }
}