{
  "classifierPath" : "meta::pure::metamodel::type::Class",
  "content" : {
    "_type" : "class",
    "name" : "SimplePayment",
    "package" : "FpML::model",
    "properties" : [ {
      "multiplicity" : {
        "lowerBound" : 0,
        "upperBound" : 1
      },
      "name" : "payerPartyReference",
      "taggedValues" : [ {
        "tag" : {
          "profile" : "meta::pure::profiles::doc",
          "value" : "doc"
        },
        "value" : "A reference to the party responsible for making the payments defined by this structure."
      } ],
      "type" : "FpML::model::PartyReference"
    }, {
      "multiplicity" : {
        "lowerBound" : 0,
        "upperBound" : 1
      },
      "name" : "payerAccountReference",
      "taggedValues" : [ {
        "tag" : {
          "profile" : "meta::pure::profiles::doc",
          "value" : "doc"
        },
        "value" : "A reference to the account responsible for making the payments defined by this structure."
      } ],
      "type" : "FpML::model::AccountReference"
    }, {
      "multiplicity" : {
        "lowerBound" : 0,
        "upperBound" : 1
      },
      "name" : "receiverPartyReference",
      "taggedValues" : [ {
        "tag" : {
          "profile" : "meta::pure::profiles::doc",
          "value" : "doc"
        },
        "value" : "A reference to the party that receives the payments corresponding to this structure."
      } ],
      "type" : "FpML::model::PartyReference"
    }, {
      "multiplicity" : {
        "lowerBound" : 0,
        "upperBound" : 1
      },
      "name" : "receiverAccountReference",
      "taggedValues" : [ {
        "tag" : {
          "profile" : "meta::pure::profiles::doc",
          "value" : "doc"
        },
        "value" : "A reference to the account that receives the payments corresponding to this structure."
      } ],
      "type" : "FpML::model::AccountReference"
    }, {
      "multiplicity" : {
        "lowerBound" : 0,
        "upperBound" : 1
      },
      "name" : "paymentAmount",
      "type" : "FpML::model::NonNegativeMoney"
    }, {
      "multiplicity" : {
        "lowerBound" : 0,
        "upperBound" : 1
      },
      "name" : "paymentDate",
      "taggedValues" : [ {
        "tag" : {
          "profile" : "meta::pure::profiles::doc",
          "value" : "doc"
        },
        "value" : "The payment date. This date is subject to adjustment in accordance with any applicable business day convention."
      } ],
      "type" : "FpML::model::AdjustableOrRelativeDate"
    } ],
    "superTypes" : [ "FpML::model::PaymentBase" ],
    "taggedValues" : [ {
      "tag" : {
        "profile" : "meta::pure::profiles::doc",
        "value" : "doc"
      },
      "value" : "A complex type to specified payments in a simpler fashion than the Payment type. This construct should be used from the version 4.3 onwards."
    } ]
  }
}