{
  "classifierPath" : "meta::pure::metamodel::type::Class",
  "content" : {
    "_type" : "class",
    "name" : "Step",
    "package" : "FpML::model",
    "properties" : [ {
      "multiplicity" : {
        "lowerBound" : 0,
        "upperBound" : 1
      },
      "name" : "stepValue",
      "taggedValues" : [ {
        "tag" : {
          "profile" : "meta::pure::profiles::doc",
          "value" : "doc"
        },
        "value" : "The rate or amount which becomes effective on the associated stepDate. A rate of 5% would be represented as 0.05."
      } ],
      "type" : "Decimal"
    } ],
    "superTypes" : [ "FpML::model::StepBase" ],
    "taggedValues" : [ {
      "tag" : {
        "profile" : "meta::pure::profiles::doc",
        "value" : "doc"
      },
      "value" : "A type defining a step date and step value pair. This step definitions are used to define varying rate or amount schedules, e.g. a notional amortization or a step-up coupon schedule."
    } ]
  }
}