{
  "classifierPath" : "meta::pure::metamodel::type::Class",
  "content" : {
    "_type" : "class",
    "constraints" : [ {
      "functionDefinition" : {
        "_type" : "lambda",
        "body" : [ {
          "_type" : "func",
          "function" : "or",
          "parameters" : [ {
            "_type" : "func",
            "function" : "and",
            "parameters" : [ {
              "_type" : "func",
              "function" : "isNotEmpty",
              "parameters" : [ {
                "_type" : "property",
                "parameters" : [ {
                  "_type" : "var",
                  "name" : "this",
                  "sourceInformation" : {
                    "endColumn" : 19,
                    "endLine" : 9297,
                    "sourceId" : "",
                    "startColumn" : 15,
                    "startLine" : 9297
                  }
                } ],
                "property" : "strikeSpread",
                "sourceInformation" : {
                  "endColumn" : 32,
                  "endLine" : 9297,
                  "sourceId" : "",
                  "startColumn" : 21,
                  "startLine" : 9297
                }
              } ],
              "sourceInformation" : {
                "endColumn" : 44,
                "endLine" : 9297,
                "sourceId" : "",
                "startColumn" : 35,
                "startLine" : 9297
              }
            }, {
              "_type" : "func",
              "function" : "isEmpty",
              "parameters" : [ {
                "_type" : "property",
                "parameters" : [ {
                  "_type" : "var",
                  "name" : "this",
                  "sourceInformation" : {
                    "endColumn" : 55,
                    "endLine" : 9297,
                    "sourceId" : "",
                    "startColumn" : 51,
                    "startLine" : 9297
                  }
                } ],
                "property" : "calendarSpread",
                "sourceInformation" : {
                  "endColumn" : 70,
                  "endLine" : 9297,
                  "sourceId" : "",
                  "startColumn" : 57,
                  "startLine" : 9297
                }
              } ],
              "sourceInformation" : {
                "endColumn" : 79,
                "endLine" : 9297,
                "sourceId" : "",
                "startColumn" : 73,
                "startLine" : 9297
              }
            } ],
            "sourceInformation" : {
              "endColumn" : 49,
              "endLine" : 9297,
              "sourceId" : "",
              "startColumn" : 48,
              "startLine" : 9297
            }
          }, {
            "_type" : "func",
            "function" : "and",
            "parameters" : [ {
              "_type" : "func",
              "function" : "isEmpty",
              "parameters" : [ {
                "_type" : "property",
                "parameters" : [ {
                  "_type" : "var",
                  "name" : "this",
                  "sourceInformation" : {
                    "endColumn" : 92,
                    "endLine" : 9297,
                    "sourceId" : "",
                    "startColumn" : 88,
                    "startLine" : 9297
                  }
                } ],
                "property" : "strikeSpread",
                "sourceInformation" : {
                  "endColumn" : 105,
                  "endLine" : 9297,
                  "sourceId" : "",
                  "startColumn" : 94,
                  "startLine" : 9297
                }
              } ],
              "sourceInformation" : {
                "endColumn" : 114,
                "endLine" : 9297,
                "sourceId" : "",
                "startColumn" : 108,
                "startLine" : 9297
              }
            }, {
              "_type" : "func",
              "function" : "isNotEmpty",
              "parameters" : [ {
                "_type" : "property",
                "parameters" : [ {
                  "_type" : "var",
                  "name" : "this",
                  "sourceInformation" : {
                    "endColumn" : 125,
                    "endLine" : 9297,
                    "sourceId" : "",
                    "startColumn" : 121,
                    "startLine" : 9297
                  }
                } ],
                "property" : "calendarSpread",
                "sourceInformation" : {
                  "endColumn" : 140,
                  "endLine" : 9297,
                  "sourceId" : "",
                  "startColumn" : 127,
                  "startLine" : 9297
                }
              } ],
              "sourceInformation" : {
                "endColumn" : 152,
                "endLine" : 9297,
                "sourceId" : "",
                "startColumn" : 143,
                "startLine" : 9297
              }
            } ],
            "sourceInformation" : {
              "endColumn" : 119,
              "endLine" : 9297,
              "sourceId" : "",
              "startColumn" : 118,
              "startLine" : 9297
            }
          } ],
          "sourceInformation" : {
            "endColumn" : 85,
            "endLine" : 9297,
            "sourceId" : "",
            "startColumn" : 84,
            "startLine" : 9297
          }
        } ],
        "parameters" : [ ]
      },
      "name" : "c1_choice"
    } ],
    "name" : "StrategyFeature",
    "package" : "FpML::model",
    "properties" : [ {
      "multiplicity" : {
        "lowerBound" : 0,
        "upperBound" : 1
      },
      "name" : "strikeSpread",
      "taggedValues" : [ {
        "tag" : {
          "profile" : "meta::pure::profiles::doc",
          "value" : "doc"
        },
        "value" : "Definition of the upper strike in a strike spread."
      } ],
      "type" : "FpML::model::StrikeSpread"
    }, {
      "multiplicity" : {
        "lowerBound" : 0,
        "upperBound" : 1
      },
      "name" : "calendarSpread",
      "taggedValues" : [ {
        "tag" : {
          "profile" : "meta::pure::profiles::doc",
          "value" : "doc"
        },
        "value" : "Definition of the later expiration date in a calendar spread."
      } ],
      "type" : "FpML::model::CalendarSpread"
    } ],
    "taggedValues" : [ {
      "tag" : {
        "profile" : "meta::pure::profiles::doc",
        "value" : "doc"
      },
      "value" : "A type for definining equity option simple strike or calendar spread strategy features."
    } ]
  }
}