{
  "classifierPath" : "meta::pure::metamodel::type::Class",
  "content" : {
    "_type" : "class",
    "constraints" : [ {
      "functionDefinition" : {
        "_type" : "lambda",
        "body" : [ {
          "_type" : "func",
          "function" : "forAll",
          "parameters" : [ {
            "_type" : "property",
            "parameters" : [ {
              "_type" : "var",
              "name" : "this",
              "sourceInformation" : {
                "endColumn" : 18,
                "endLine" : 9394,
                "sourceId" : "",
                "startColumn" : 14,
                "startLine" : 9394
              }
            } ],
            "property" : "number",
            "sourceInformation" : {
              "endColumn" : 25,
              "endLine" : 9394,
              "sourceId" : "",
              "startColumn" : 20,
              "startLine" : 9394
            }
          }, {
            "_type" : "lambda",
            "body" : [ {
              "_type" : "func",
              "function" : "greaterThanEqual",
              "parameters" : [ {
                "_type" : "func",
                "function" : "length",
                "parameters" : [ {
                  "_type" : "var",
                  "name" : "x",
                  "sourceInformation" : {
                    "endColumn" : 49,
                    "endLine" : 9394,
                    "sourceId" : "",
                    "startColumn" : 48,
                    "startLine" : 9394
                  }
                } ],
                "sourceInformation" : {
                  "endColumn" : 57,
                  "endLine" : 9394,
                  "sourceId" : "",
                  "startColumn" : 52,
                  "startLine" : 9394
                }
              }, {
                "_type" : "integer",
                "multiplicity" : {
                  "lowerBound" : 1,
                  "upperBound" : 1
                },
                "sourceInformation" : {
                  "endColumn" : 64,
                  "endLine" : 9394,
                  "sourceId" : "",
                  "startColumn" : 64,
                  "startLine" : 9394
                },
                "values" : [ 1 ]
              } ],
              "sourceInformation" : {
                "endColumn" : 64,
                "endLine" : 9394,
                "sourceId" : "",
                "startColumn" : 61,
                "startLine" : 9394
              }
            } ],
            "parameters" : [ {
              "_type" : "var",
              "class" : "String",
              "multiplicity" : {
                "lowerBound" : 1,
                "upperBound" : 1
              },
              "name" : "x",
              "sourceInformation" : {
                "endColumn" : 43,
                "endLine" : 9394,
                "sourceId" : "",
                "startColumn" : 38,
                "startLine" : 9394
              }
            } ],
            "sourceInformation" : {
              "endColumn" : 64,
              "endLine" : 9394,
              "sourceId" : "",
              "startColumn" : 47,
              "startLine" : 9394
            }
          } ],
          "sourceInformation" : {
            "endColumn" : 33,
            "endLine" : 9394,
            "sourceId" : "",
            "startColumn" : 28,
            "startLine" : 9394
          }
        } ],
        "parameters" : [ ]
      },
      "name" : "c1_length"
    } ],
    "name" : "TelephoneNumber",
    "package" : "FpML::model",
    "properties" : [ {
      "multiplicity" : {
        "lowerBound" : 0,
        "upperBound" : 1
      },
      "name" : "type",
      "taggedValues" : [ {
        "tag" : {
          "profile" : "meta::pure::profiles::doc",
          "value" : "doc"
        },
        "value" : "The type of telephone number (work, personal, mobile)."
      } ],
      "type" : "FpML::model::TelephoneTypeEnum"
    }, {
      "multiplicity" : {
        "lowerBound" : 0,
        "upperBound" : 1
      },
      "name" : "number",
      "taggedValues" : [ {
        "tag" : {
          "profile" : "meta::pure::profiles::doc",
          "value" : "doc"
        },
        "value" : "A telephonic contact."
      } ],
      "type" : "String"
    } ],
    "taggedValues" : [ {
      "tag" : {
        "profile" : "meta::pure::profiles::doc",
        "value" : "doc"
      },
      "value" : "A type that represents a telephonic contact."
    } ]
  }
}