{
  "classifierPath" : "meta::pure::metamodel::type::Enumeration",
  "content" : {
    "_type" : "Enumeration",
    "name" : "TriggerConditionEnum",
    "package" : "FpML::model",
    "taggedValues" : [ {
      "tag" : {
        "profile" : "meta::pure::profiles::doc",
        "value" : "doc"
      },
      "value" : "The specification of whether a payout will occur on an option depending upon whether the spot rate is at or above or at or below the trigger rate."
    } ],
    "values" : [ {
      "value" : "AtOrAbove"
    }, {
      "value" : "AtOrBelow"
    }, {
      "value" : "Above"
    }, {
      "value" : "Below"
    } ]
  }
}