{
  "classifierPath" : "meta::pure::metamodel::type::Class",
  "content" : {
    "_type" : "class",
    "constraints" : [ {
      "functionDefinition" : {
        "_type" : "lambda",
        "body" : [ {
          "_type" : "func",
          "function" : "forAll",
          "parameters" : [ {
            "_type" : "property",
            "parameters" : [ {
              "_type" : "var",
              "name" : "this",
              "sourceInformation" : {
                "endColumn" : 17,
                "endLine" : 9519,
                "sourceId" : "",
                "startColumn" : 13,
                "startLine" : 9519
              }
            } ],
            "property" : "weight",
            "sourceInformation" : {
              "endColumn" : 24,
              "endLine" : 9519,
              "sourceId" : "",
              "startColumn" : 19,
              "startLine" : 9519
            }
          }, {
            "_type" : "lambda",
            "body" : [ {
              "_type" : "func",
              "function" : "greaterThanEqual",
              "parameters" : [ {
                "_type" : "var",
                "name" : "x",
                "sourceInformation" : {
                  "endColumn" : 49,
                  "endLine" : 9519,
                  "sourceId" : "",
                  "startColumn" : 48,
                  "startLine" : 9519
                }
              }, {
                "_type" : "integer",
                "multiplicity" : {
                  "lowerBound" : 1,
                  "upperBound" : 1
                },
                "sourceInformation" : {
                  "endColumn" : 54,
                  "endLine" : 9519,
                  "sourceId" : "",
                  "startColumn" : 54,
                  "startLine" : 9519
                },
                "values" : [ 0 ]
              } ],
              "sourceInformation" : {
                "endColumn" : 54,
                "endLine" : 9519,
                "sourceId" : "",
                "startColumn" : 51,
                "startLine" : 9519
              }
            } ],
            "parameters" : [ {
              "_type" : "var",
              "class" : "Decimal",
              "multiplicity" : {
                "lowerBound" : 1,
                "upperBound" : 1
              },
              "name" : "x",
              "sourceInformation" : {
                "endColumn" : 43,
                "endLine" : 9519,
                "sourceId" : "",
                "startColumn" : 37,
                "startLine" : 9519
              }
            } ],
            "sourceInformation" : {
              "endColumn" : 54,
              "endLine" : 9519,
              "sourceId" : "",
              "startColumn" : 47,
              "startLine" : 9519
            }
          } ],
          "sourceInformation" : {
            "endColumn" : 32,
            "endLine" : 9519,
            "sourceId" : "",
            "startColumn" : 27,
            "startLine" : 9519
          }
        } ],
        "parameters" : [ ]
      },
      "name" : "c1_range"
    }, {
      "functionDefinition" : {
        "_type" : "lambda",
        "body" : [ {
          "_type" : "func",
          "function" : "or",
          "parameters" : [ {
            "_type" : "func",
            "function" : "and",
            "parameters" : [ {
              "_type" : "func",
              "function" : "isNotEmpty",
              "parameters" : [ {
                "_type" : "property",
                "parameters" : [ {
                  "_type" : "var",
                  "name" : "this",
                  "sourceInformation" : {
                    "endColumn" : 19,
                    "endLine" : 9520,
                    "sourceId" : "",
                    "startColumn" : 15,
                    "startLine" : 9520
                  }
                } ],
                "property" : "dateTime",
                "sourceInformation" : {
                  "endColumn" : 28,
                  "endLine" : 9520,
                  "sourceId" : "",
                  "startColumn" : 21,
                  "startLine" : 9520
                }
              } ],
              "sourceInformation" : {
                "endColumn" : 40,
                "endLine" : 9520,
                "sourceId" : "",
                "startColumn" : 31,
                "startLine" : 9520
              }
            }, {
              "_type" : "func",
              "function" : "isEmpty",
              "parameters" : [ {
                "_type" : "property",
                "parameters" : [ {
                  "_type" : "var",
                  "name" : "this",
                  "sourceInformation" : {
                    "endColumn" : 51,
                    "endLine" : 9520,
                    "sourceId" : "",
                    "startColumn" : 47,
                    "startLine" : 9520
                  }
                } ],
                "property" : "observationNumber",
                "sourceInformation" : {
                  "endColumn" : 69,
                  "endLine" : 9520,
                  "sourceId" : "",
                  "startColumn" : 53,
                  "startLine" : 9520
                }
              } ],
              "sourceInformation" : {
                "endColumn" : 78,
                "endLine" : 9520,
                "sourceId" : "",
                "startColumn" : 72,
                "startLine" : 9520
              }
            } ],
            "sourceInformation" : {
              "endColumn" : 45,
              "endLine" : 9520,
              "sourceId" : "",
              "startColumn" : 44,
              "startLine" : 9520
            }
          }, {
            "_type" : "func",
            "function" : "and",
            "parameters" : [ {
              "_type" : "func",
              "function" : "isEmpty",
              "parameters" : [ {
                "_type" : "property",
                "parameters" : [ {
                  "_type" : "var",
                  "name" : "this",
                  "sourceInformation" : {
                    "endColumn" : 91,
                    "endLine" : 9520,
                    "sourceId" : "",
                    "startColumn" : 87,
                    "startLine" : 9520
                  }
                } ],
                "property" : "dateTime",
                "sourceInformation" : {
                  "endColumn" : 100,
                  "endLine" : 9520,
                  "sourceId" : "",
                  "startColumn" : 93,
                  "startLine" : 9520
                }
              } ],
              "sourceInformation" : {
                "endColumn" : 109,
                "endLine" : 9520,
                "sourceId" : "",
                "startColumn" : 103,
                "startLine" : 9520
              }
            }, {
              "_type" : "func",
              "function" : "isNotEmpty",
              "parameters" : [ {
                "_type" : "property",
                "parameters" : [ {
                  "_type" : "var",
                  "name" : "this",
                  "sourceInformation" : {
                    "endColumn" : 120,
                    "endLine" : 9520,
                    "sourceId" : "",
                    "startColumn" : 116,
                    "startLine" : 9520
                  }
                } ],
                "property" : "observationNumber",
                "sourceInformation" : {
                  "endColumn" : 138,
                  "endLine" : 9520,
                  "sourceId" : "",
                  "startColumn" : 122,
                  "startLine" : 9520
                }
              } ],
              "sourceInformation" : {
                "endColumn" : 150,
                "endLine" : 9520,
                "sourceId" : "",
                "startColumn" : 141,
                "startLine" : 9520
              }
            } ],
            "sourceInformation" : {
              "endColumn" : 114,
              "endLine" : 9520,
              "sourceId" : "",
              "startColumn" : 113,
              "startLine" : 9520
            }
          } ],
          "sourceInformation" : {
            "endColumn" : 84,
            "endLine" : 9520,
            "sourceId" : "",
            "startColumn" : 83,
            "startLine" : 9520
          }
        } ],
        "parameters" : [ ]
      },
      "name" : "c2_choice"
    } ],
    "name" : "WeightedAveragingObservation",
    "package" : "FpML::model",
    "properties" : [ {
      "multiplicity" : {
        "lowerBound" : 0,
        "upperBound" : 1
      },
      "name" : "dateTime",
      "taggedValues" : [ {
        "tag" : {
          "profile" : "meta::pure::profiles::doc",
          "value" : "doc"
        },
        "value" : "Observation date time, which should be used when literal observation dates are required."
      } ],
      "type" : "DateTime"
    }, {
      "multiplicity" : {
        "lowerBound" : 0,
        "upperBound" : 1
      },
      "name" : "observationNumber",
      "taggedValues" : [ {
        "tag" : {
          "profile" : "meta::pure::profiles::doc",
          "value" : "doc"
        },
        "value" : "Observation number, which should be unique, within a series generated by a date schedule."
      } ],
      "type" : "Decimal"
    }, {
      "multiplicity" : {
        "lowerBound" : 0,
        "upperBound" : 1
      },
      "name" : "weight",
      "taggedValues" : [ {
        "tag" : {
          "profile" : "meta::pure::profiles::doc",
          "value" : "doc"
        },
        "value" : "Observation weight, which is used as a multiplier for the observation value."
      } ],
      "type" : "Decimal"
    } ],
    "taggedValues" : [ {
      "tag" : {
        "profile" : "meta::pure::profiles::doc",
        "value" : "doc"
      },
      "value" : "A single weighted averaging observation."
    } ]
  }
}